<svg width="48" height="48" viewBox="0 0 48 48" fill="none" xmlns="http://www.w3.org/2000/svg">
<path fill-rule="evenodd" clip-rule="evenodd" d="M23.0312 19.8535C23.0312 26.8695 30.0466 35.2885 34.2567 39.4988V39.5L34.2572 39.4994L34.2578 39.5V39.4988C38.4679 35.2885 45.4832 26.8695 45.4832 19.8535C45.4832 12.8374 39.8707 8.62752 34.2578 8.62695L34.2576 14.24C34.2573 14.24 34.257 14.24 34.2567 14.24V8.62695C28.6438 8.62752 23.0312 12.8374 23.0312 19.8535ZM34.2567 25.4665V39.4988L34.2572 25.4665C34.2574 25.4665 34.2576 25.4665 34.2578 25.4665C37.3579 25.4665 39.8711 22.9534 39.8711 19.8533C39.8711 16.7531 37.3579 14.24 34.2578 14.24C34.2577 14.24 34.2577 14.24 34.2576 14.24L34.2572 25.4665C34.257 25.4665 34.2568 25.4665 34.2567 25.4665ZM34.2567 25.4665V14.24C31.1571 14.2406 28.6445 16.7535 28.6445 19.8533C28.6445 22.953 31.1571 25.4659 34.2567 25.4665Z" fill="#20DB81"/>
<circle cx="18.5356" cy="24.6801" r="16.0531" fill="#6D25E1"/>
<circle cx="18.5" cy="24.5" r="13.5" fill="url(#paint0_linear_598_1250)"/>
<path fill-rule="evenodd" clip-rule="evenodd" d="M32.6619 17.048V25.7256C32.6619 25.9959 32.8348 26.2358 33.0912 26.3213C33.5774 26.4834 33.8623 26.9867 33.7512 27.4869L32.7094 32.1751C32.7017 32.2094 32.6923 32.2432 32.6812 32.2764C32.6231 32.3843 32.5639 32.4914 32.5034 32.5978L30.0607 35.8547C28.1532 37.8217 25.7466 39.302 23.0451 40.0911H17.6094C17.0572 40.0911 16.6094 39.6434 16.6094 39.0911V33.7485C16.6094 33.3181 16.8849 32.936 17.2932 32.7998L19.9117 31.927C20.2521 31.8136 20.5056 31.5264 20.576 31.1745L21.5857 26.1262C21.6792 25.6587 22.0896 25.3223 22.5663 25.3223H26.2887C26.772 25.3223 27.1861 24.9766 27.2726 24.5012L27.7063 22.1155C27.8403 21.3785 27.1463 20.7612 26.4299 20.9804L19.6884 23.0429C19.0893 23.2262 18.4711 22.8198 18.4019 22.1971L17.9918 18.5062C17.9356 17.9998 17.5075 17.6166 16.998 17.6166H13.0189C12.5051 17.6166 12.0749 17.2273 12.0238 16.7161L11.545 11.928C11.5014 11.4923 11.7465 11.0789 12.1496 10.9079L14.3129 9.9905C14.4364 9.93812 14.5692 9.91113 14.7033 9.91113H15.9666H22.7272C22.9247 9.91113 23.1177 9.96957 23.2819 10.0791L31.9487 15.8569C32.2029 16.2427 32.441 16.64 32.6619 17.048ZM3.45575 30.1976C2.82606 28.4771 2.48242 26.6187 2.48242 24.6801C2.48242 22.6904 2.84438 20.7853 3.50605 19.0271C3.65067 18.9464 3.81684 18.9009 3.99244 18.9009H5.05152H8.69927C9.18811 18.9009 9.6053 19.2543 9.68566 19.7365L10.0711 22.0491C10.1413 22.4705 10.4716 22.8008 10.8931 22.8711L13.2953 23.2714C13.7366 23.345 14.0754 23.7027 14.1248 24.1474L14.6134 28.545C14.6561 28.9295 14.4732 29.3043 14.1436 29.5071L7.13855 33.8179C6.68772 34.0953 6.09878 33.9733 5.79522 33.5397L3.45575 30.1976Z" fill="#6D25E1"/>
<path fill-rule="evenodd" clip-rule="evenodd" d="M34.2573 21.4147L34.2572 25.4665H34.2567V21.4115C34.2569 21.4126 34.2571 21.4137 34.2573 21.4147ZM31.3722 15.0375C29.738 16.0188 28.6445 17.8083 28.6445 19.8533C28.6445 22.953 31.1571 25.4659 34.2567 25.4665V27.9486C33.6742 30.7647 32.354 33.311 30.5072 35.3764C26.8251 30.9311 23.0312 25.0129 23.0312 19.8535C23.0312 16.0314 24.6968 13.0421 27.1207 11.1124C28.7642 12.1544 30.2054 13.4869 31.3722 15.0375ZM34.2571 27.9466L34.2572 25.4665H34.2578C34.363 25.4665 34.4674 25.4636 34.5711 25.4579C34.5307 26.3064 34.4243 27.1376 34.2571 27.9466Z" fill="url(#paint1_linear_598_1250)"/>
<defs>
<linearGradient id="paint0_linear_598_1250" x1="12.1629" y1="24.769" x2="28.9821" y2="25.1895" gradientUnits="userSpaceOnUse">
<stop stop-color="#FCFCFF"/>
<stop offset="1" stop-color="#A57AED"/>
</linearGradient>
<linearGradient id="paint1_linear_598_1250" x1="23.001" y1="21.9999" x2="34.001" y2="19.9999" gradientUnits="userSpaceOnUse">
<stop stop-color="#8D65FF"/>
<stop offset="1" stop-color="#6D25E1"/>
</linearGradient>
</defs>
</svg>
