<svg width="48" height="48" viewBox="0 0 48 48" fill="none" xmlns="http://www.w3.org/2000/svg">
<path fill-rule="evenodd" clip-rule="evenodd" d="M44.5979 15.2086C44.7983 15.2711 44.9526 15.4391 44.9725 15.648C45.0574 16.5392 45.0568 17.4437 44.9659 18.3496C44.9449 18.5586 44.7894 18.726 44.5884 18.7873C43.2514 19.195 42.0994 20.1736 41.5187 21.5643C40.9566 22.9104 41.0454 24.3657 41.6413 25.5799C41.7339 25.7686 41.7178 25.9965 41.5794 26.1547C41.0663 26.741 40.5083 27.2787 39.9131 27.7647C39.7505 27.8975 39.5225 27.9059 39.3372 27.8073C38.1039 27.1513 36.5985 27.0293 35.2054 27.6016C33.8567 28.1558 32.8908 29.2468 32.4532 30.5259C32.3852 30.7245 32.213 30.8742 32.0035 30.8883C31.435 30.9266 30.8618 30.9302 30.2869 30.8977C30.0567 30.8847 29.8728 30.7088 29.8192 30.4846C29.4707 29.0276 28.4556 27.7511 26.9683 27.1283C26.9415 27.1175 26.9148 27.1066 26.8881 27.0956C25.394 26.5004 23.7743 26.6991 22.5035 27.4966C22.3083 27.6192 22.0539 27.616 21.8804 27.4642C21.3692 27.0169 20.895 26.5355 20.4598 26.025C20.3103 25.8497 20.3103 25.5956 20.4349 25.402C21.266 24.1111 21.4735 22.4481 20.8458 20.9203C20.2368 19.4381 18.9793 18.4181 17.5364 18.0538C17.3131 17.9974 17.1397 17.8116 17.1293 17.5815C17.1095 17.1426 17.1103 16.7011 17.1326 16.2586C17.1441 16.0284 17.3187 15.8435 17.5425 15.7884C18.9876 15.4324 20.251 14.4196 20.8686 12.9408C21.5051 11.4163 21.3069 9.75197 20.483 8.45621C20.3593 8.26177 20.3609 8.00752 20.5115 7.83313C20.888 7.39714 21.2892 6.98762 21.712 6.60583C21.883 6.45143 22.1371 6.44414 22.3342 6.56337C23.6078 7.33371 25.2176 7.51106 26.7001 6.90195C28.2282 6.27407 29.265 4.95688 29.5985 3.45785C29.6486 3.233 29.8293 3.05437 30.0591 3.03742C30.8259 2.98084 31.6017 2.98755 32.3787 3.06066C32.5879 3.08034 32.7562 3.23474 32.8187 3.43529C33.2318 4.75981 34.2062 5.89912 35.5866 6.47555C36.9427 7.04179 38.4094 6.94752 39.629 6.3398C39.8171 6.24609 40.045 6.26069 40.204 6.39806C40.7178 6.84202 41.1949 7.32022 41.6331 7.82765C41.7703 7.98652 41.785 8.21423 41.6915 8.4022C41.0897 9.61257 40.993 11.0664 41.5471 12.415C42.1194 13.8079 43.2645 14.7926 44.5979 15.2086ZM29.0781 21.3958C26.725 20.4132 25.614 17.7091 26.5966 15.356C27.5792 13.0029 30.2833 11.8918 32.6364 12.8744C34.9895 13.857 36.1005 16.5611 35.1179 18.9142C34.1354 21.2673 31.4313 22.3784 29.0781 21.3958Z" fill="#20DB81"/>
<path fill-rule="evenodd" clip-rule="evenodd" d="M34.943 26.9511C35.144 27.0113 35.298 27.1797 35.3187 27.3885C35.4292 28.4998 35.4287 29.629 35.3104 30.7596C35.2885 30.9685 35.1334 31.1361 34.9319 31.1951C33.3045 31.6711 31.8983 32.8512 31.194 34.5377C30.512 36.1711 30.6307 37.9387 31.3707 39.4039C31.4654 39.5914 31.4489 39.8192 31.3112 39.9779C30.669 40.7181 29.9674 41.3942 29.2167 42.0019C29.0536 42.134 28.8256 42.1429 28.6414 42.0422C27.1543 41.2287 25.3262 41.0691 23.6361 41.7634C21.9993 42.436 20.8335 43.7693 20.3205 45.3281C20.2549 45.5275 20.0823 45.6768 19.8729 45.6918C19.1451 45.7439 18.4108 45.7484 17.6743 45.7033C17.4441 45.6893 17.2598 45.5138 17.2091 45.2888C16.809 43.5121 15.5829 41.9498 13.7744 41.1946C11.9355 40.4268 9.92646 40.6738 8.3705 41.6797C8.17689 41.8049 7.92241 41.8012 7.74819 41.6502C7.09456 41.0836 6.49084 40.4707 5.94002 39.8187C5.79134 39.6427 5.79075 39.3885 5.91807 39.1965C6.94859 37.6424 7.21507 35.6213 6.45304 33.7666C5.71338 31.9664 4.17441 30.7359 2.41536 30.3171C2.19123 30.2638 2.01806 30.0775 2.00659 29.8474C1.97788 29.2717 1.97901 28.6923 2.01088 28.1114C2.02351 27.8813 2.19776 27.6959 2.42228 27.6437C4.18339 27.2348 5.72904 26.0133 6.47888 24.2176C7.25149 22.3673 6.99658 20.3448 5.97502 18.7848C5.84876 18.592 5.85087 18.3377 6.00069 18.1626C6.48277 17.5991 6.99909 17.0722 7.5451 16.5837C7.71679 16.4301 7.97095 16.4223 8.16647 16.5442C9.70091 17.5004 11.6577 17.7296 13.4577 16.99C15.3122 16.228 16.5621 14.6178 16.9428 12.7925C16.9899 12.567 17.1711 12.3887 17.4007 12.3707C18.3663 12.295 19.3439 12.3031 20.323 12.3994C20.532 12.42 20.7007 12.5741 20.7609 12.7753C21.2433 14.3884 22.4186 15.7801 24.0935 16.4795C25.739 17.1666 27.5207 17.041 28.9921 16.2863C29.1791 16.1904 29.4071 16.2055 29.5666 16.3422C30.2192 16.9014 30.8227 17.5066 31.3742 18.1506C31.5108 18.31 31.5259 18.5377 31.4303 18.7246C30.6827 20.1851 30.5543 21.9513 31.2267 23.5879C31.921 25.2776 33.3194 26.4653 34.943 26.9511ZM16.2968 34.3356C13.4806 33.1597 12.151 29.9235 13.3269 27.1073C14.5028 24.2911 17.7391 22.9614 20.5553 24.1374C23.3715 25.3133 24.7011 28.5496 23.5252 31.3657C22.3492 34.1819 19.113 35.5116 16.2968 34.3356Z" fill="#6D25E1"/>
<path fill-rule="evenodd" clip-rule="evenodd" d="M20.845 12.9963C21.3657 14.5149 22.5089 15.8122 24.1068 16.4794C24.8058 16.7713 25.5295 16.9166 26.2435 16.9292C26.1597 18.81 27.24 20.6282 29.0783 21.3958C29.6462 21.6329 30.2345 21.7481 30.8141 21.7533C30.854 22.3679 30.993 22.9866 31.24 23.5879C31.9342 25.2776 33.3326 26.4653 34.9562 26.9511C35.1573 27.0112 35.3112 27.1796 35.332 27.3885C35.3372 27.4409 35.3422 27.4935 35.3469 27.546C35.2997 27.5638 35.2525 27.5823 35.2055 27.6016C33.8568 28.1557 32.8909 29.2468 32.4533 30.5259C32.3854 30.7245 32.2131 30.8742 32.0036 30.8883C31.4351 30.9266 30.8619 30.9302 30.287 30.8977C30.0568 30.8846 29.8729 30.7088 29.8193 30.4846C29.4708 29.0276 28.4557 27.7511 26.9684 27.1283C26.9416 27.1175 26.9149 27.1066 26.8882 27.0955C25.7626 26.6472 24.5658 26.6494 23.5006 27.0187C23.0038 25.8845 22.1274 24.9146 20.9569 24.3172C21.3175 23.247 21.3088 22.0469 20.8459 20.9202C20.2369 19.438 18.9794 18.4181 17.5366 18.0538C17.3132 17.9974 17.1398 17.8116 17.1294 17.5815C17.1096 17.1425 17.1105 16.7011 17.1327 16.2586C17.1443 16.0284 17.3188 15.8435 17.5426 15.7883C18.9695 15.4368 20.2193 14.445 20.845 12.9963Z" fill="url(#paint0_linear_598_1164)"/>
<defs>
<linearGradient id="paint0_linear_598_1164" x1="30.0217" y1="16.9867" x2="21.013" y2="26.4935" gradientUnits="userSpaceOnUse">
<stop stop-color="#6D25E1"/>
<stop offset="1" stop-color="#8D65FF"/>
</linearGradient>
</defs>
</svg>
